Time: 4.764
Time: 4.777
Result #4: 0.336637 points: 1532
Time: 4.704
Result #8: 0.325998 points: 1485
Time: 4.833
Result #12: 0.31951 points: 1477
Time: 4.64
Result #16: 0.351444 points: 1559
Time: 4.732
Result #20: 0.364823 points: 1466
Time: 4.809
Result #24: 0.358674 points: 1808
Time: 4.862
Result #28: 0.29151 points: 1397
Time: 4.658
Result #32: 0.226477 points: 1336
Time: 4.738
Result #36: 0.118962 points: 1426
Time: 4.671
Result #40: 0.150701 points: 1400
Time: 4.5
Result #44: 0.150121 points: 1434
Time: 4.564
Result #48: 0.15444 points: 1536
Time: 4.501
Result #52: 0.138573 points: 1456
Time: 4.469
Result #56: 0.142793 points: 1430
Time: 4.367
Result #60: 0.122248 points: 1338
Time: 4.427
Result #64: 0.103353 points: 1262
Time: 4.372
Result #68: 0.0993633 points: 1372
Time: 4.326
Result #72: 0.0995441 points: 1446
Time: 4.442
Result #76: 0.09897 points: 1617
Time: 4.416
Result #80: 0.099609 points: 1724
Time: 4.437
Result #84: 0.093787 points: 1746
Time: 4.349
Result #88: 0.0957087 points: 1771
Time: 4.413
Result #92: 0.0997875 points: 1814
Time: 4.397
Result #96: 0.111403 points: 1873
Time: 4.407
Result #100: 0.109486 points: 1841
Time: 4.438
Result #104: 0.11124 points: 1898
Time: 4.396
Result #108: 0.110258 points: 1922
Time: 4.357
Result #112: 0.106711 points: 1957
Time: 4.238
Result #116: 0.0978706 points: 1944
Time: 4.235
Result #120: 0.0755216 points: 1947
Time: 4.269
Result #124: 0.0826199 points: 1918
Time: 4.223
Result #128: 0.087555 points: 1922
Time: 4.206
Result #132: 0.0787746 points: 1841
Time: 4.103
Result #136: 0.0464432 points: 1845
Time: 4.211
Result #140: 0.0786038 points: 1831
Time: 4.152
Result #144: 0.0885514 points: 1892
Time: 4.173
Result #148: 0.0874262 points: 1889
Time: 4.153
Result #152: 0.0830188 points: 1864
Time: 4.113
Result #156: 0.0856876 points: 1716
Time: 4.1
Result #160: 0.0907559 points: 1618
Time: 3.985
Result #164: 0.0897835 points: 1591
Time: 4.086
Result #168: 0.0943633 points: 1504
Time: 4.154
Result #172: 0.0988355 points: 1561
Time: 4.153
Result #176: 0.109335 points: 1610
Time: 4.259
Result #180: 0.124619 points: 1600
Time: 4.462
Result #184: 0.128913 points: 1746
Time: 4.537
Result #188: 0.130526 points: 1661
Time: 4.63
Result #192: 0.141095 points: 1677
Time: 4.441
Result #196: 0.131841 points: 1575
