Result #101: 0.435029
Result #102: 0.0559423
Result #103: 0.0409677
Result #104: 0.0436402
Result #105: 0.0142601
Result #106: 0
Result #107: 0
Result #108: 0.000312796
Result #109: 0
Result #110: 0
Result #111: 0
Result #112: 0
Result #113: 0
Result #114: 0
Result #115: 0
Result #116: 0
Result #117: 0
Result #118: 0
Result #119: 0
Result #120: 0
Result #121: 0
Result #122: 0
Result #123: 0
Result #124: 0
Result #125: 0
Result #126: 0
Result #127: 0
Result #128: 0
Result #129: 0
Result #130: 0
Result #131: 0
Result #132: 0
Result #133: 0
Result #134: 0
Result #135: 0
Result #136: 0
Result #137: 0
Result #138: 0
Result #139: 0.00197865
Result #140: 0.00317488
Result #141: 0.00118469
Result #142: 4.95177e-007
Result #143: 0
Result #144: 0
Result #145: 0
Result #146: 0
Result #147: 0
Result #148: 0
Result #149: 0
Result #150: 0
Result #151: 0
Result #152: 0
Result #153: 0
Result #154: 0
Result #155: 0
Result #156: 0
Result #157: 0.00441104
Result #158: 0.00303544
Result #159: 0
Result #160: 0
Result #161: 0
Result #162: 0
Result #163: 0
Result #164: 0
Result #165: 0
Result #166: 0
Result #167: 0
Result #168: 0
Result #169: 0
Result #170: 0
Result #171: 0
Result #172: 0
Result #173: 0
Result #174: 0
Result #175: 0
Result #176: 0
Result #177: 0
Result #178: 0
Result #179: 0
Result #180: 0
Result #181: 0
Result #182: 0
Result #183: 0
Result #184: 0
Result #185: 0
Result #186: 0
Result #187: 0
Result #188: 0
Result #189: 0
Result #190: 0
Result #191: 0
Result #192: 0
Result #193: 0
Result #194: 0
Result #195: 0
Result #196: 0
Result #197: 0
Result #198: 0
Result #199: 0
Result #200: 0
Result #201: 0
Result #202: 0
Result #203: 0
Result #204: 0
